<svg id="Layer_launchdarkly" xmlns="http://www.w3.org/2000/svg" xmlns:xlink="http://www.w3.org/1999/xlink" viewBox="0 0 500 500">
  <style>
    .launchdarkly{fill:#17202d}
  </style>
  <path class="launchdarkly" d="M428.5 212c-.1-.3-.3-.4-.5-.4s-.4.3-.4.5c.8 6.5 1.1 13 1.1 19.1 0 90.8-73.8 164.6-164.6 164.6-40.8 0-78.2-15-107-39.7-.1.1-.3.2-.4.4l-.3.3c-13 12.1-30.5 20.5-48.9 26.3-.2.1-.4.1-.6.2-.1 0-.3.1-.4.1 34.5 35.5 82.7 57.6 136 57.6 104.7 0 189.9-85.2 189.9-189.9.2-13.2-1.2-26.3-3.9-39.1zm-316 84.5c.1-.1.3-.2.4-.2-8.6-20-13.4-42-13.4-65.1 0-90.8 73.8-164.6 164.6-164.6 10.5 0 21.1 1 31.5 3.1.2 0 .5-.1.5-.3.1-.2-.1-.5-.3-.5-17.3-5.1-35.3-7.6-53.2-7.6C138 61.1 52.8 146.3 52.8 251c0 27.1 5.7 52.9 16 76.2l.3-.3c.1-.1.3-.2.4-.4 16.5-14.8 30.7-24.1 42.6-29.9.2 0 .3-.1.4-.1z"/>
  <path class="launchdarkly" d="M180.9 248.8c9.7-13.9 21.7-29.6 35.4-45.8-35.6-15.1-71.1-5.2-87.1.9 27.7 13.9 43.1 31.1 51.7 44.9zM449 87.6c-6.2 22-19.6 41.9-40.5 59.1l-1.3 1.1c-4.5 3.9-11.7 3-18.4-2.1-4.4-3.4-8-8.5-8-13.6 0-1.5.3-3 1-4.4.3-.5.6-1 1-1.4 17.5-15.7 27.3-28.8 32.8-38.4-26.9 2.3-53.4 9.9-78.8 23-38.2 19.8-75.6 54.5-105.9 88.9-1 1.2-2.1 2.3-3.1 3.5-1.1 1.2-2.1 2.4-3.1 3.6-15.4 18.1-28.7 35.7-38.9 50.7l-3 4.5c-1.1 1.6-2.1 3.2-3.1 4.7-4.1 6.3-7.5 12-10.1 16.8.7.4 1.5.9 2.2 1.5 1.3.9 2.7 2 4.1 3.3 1.3 1.2 2.5 2.5 3.8 4 2.7 3.2 5.3 7.2 7.3 12.1.6 1.5 1.2 3.1 1.7 4.8.5 1.6.8 3.4 1.2 5.2.1.3.2.6.2 1 2.7-.4 7-1.2 12.7-2.5 1.5-.3 3.1-.7 4.8-1.1 1.5-.4 3.1-.8 4.8-1.2 1.3-.3 2.7-.7 4.1-1.1-.8-1.9-1.5-3.4-2-4.6-.7-1.7-1.2-2.6-1.3-2.7-.3-.5-.4-1.1-.4-1.6-.1-.7 0-1.4.3-2.1.5-1.2 1.4-2.2 2.6-2.6 2.7-1 5.3-2.1 8-3.2 31.1-13.2 54.6-30.7 54.9-30.9 1.2-.9 2.9-1.2 4.3-.6 1.5.5 2.5 1.8 2.9 3.3 1.4 6.1 2.2 11.9 2.8 17.5 6.5-3.2 13.1-6.6 19.9-10.3 54.5-30 126.8-85.5 164.5-180-4.8-1.4-13.1-3.2-24-4.2zM289.1 242.7c-9.3 0-16.7-7.5-16.7-16.7 0-9.3 7.5-16.8 16.7-16.8 9.3 0 16.8 7.5 16.8 16.8 0 9.2-7.5 16.7-16.8 16.7zm37.5-28.3c-9.3 0-16.7-7.5-16.7-16.7 0-9.3 7.5-16.8 16.7-16.8 9.3 0 16.8 7.5 16.8 16.8 0 9.2-7.5 16.7-16.8 16.7zm36-28c-9.3 0-16.7-7.5-16.7-16.7 0-9.3 7.5-16.7 16.7-16.7 9.3 0 16.8 7.5 16.8 16.7-.1 9.2-7.6 16.7-16.8 16.7zm-203.3 117c-1.1-1.3-2.1-2.4-3.2-3.3-1.5-1.3-3-2.2-4.3-2.6-.1 0-.2-.1-.2-.1-3.8-.9-15.4-2.1-34.8 7.1-.2.1-.3.1-.5.2-.1.1-.2.1-.4.2-11.5 5.6-25.7 15-42.4 30.3-.1.1-.3.2-.4.4l-.3.3C59.3 348.5 44 364.8 27 386.3c14.7-.5 44.3-2.6 72.6-10.7.1 0 .3-.1.4-.1.2-.1.4-.1.6-.2 18.4-5.3 36.2-13.3 49-24.9l.3-.3c.1-.1.3-.2.4-.4 7.1-6.6 12.5-14.5 15.5-23.8.5-1.6 1-3.2 1.3-4.9.3-1.2.5-2.4.7-3.6-.1-.3-.3-.7-.5-1-2.1-4.9-5-9.5-8-13zm-13.8-.9s0 .1 0 0c0 .1 0 0 0 0zm0 0zm4.7 13.4c-1.2 1-2.5 2.1-4 3.3-1.2.9-2.5 1.9-3.8 2.9-3.2 2.4-6.7 5-10.1 7.5-.1.1-.3.2-.4.3-.1.1-.2.1-.3.2-10.5 7.6-20.6 14.6-20.6 14.6s10.1-24.4 8.5-24.1c-13.9 3.9-32.7 19.9-39.6 26.1-.1.1-.3.2-.4.4l-.3.3c-1.3 1.2-2 1.9-2 1.9s.6-.9 1.7-2.4l.3-.3c.1-.1.2-.3.3-.5 5.4-7.1 19.4-24.7 35.1-35.5 1.1-.8 2.2-1.4 3.3-2 .1-.1.2-.1.3-.2.2-.1.3-.1.5-.2 9-4.7 17.7-4.9 24.4-3.4 1.9.4 3.6.9 5.1 1.5 1.8.7 3.3 1.5 4.3 2.4 1.4 1.1 2.2 2.2 2 2.9-.2.6-1.8 2.2-4.3 4.3zm40.7 4c-.1-.9-.1-1.5-.3-2 0 .8.2 1.3.3 2zm20.1.5c-1.2 7.5-2.8 16.3-4.8 23.9 5-2.6 11.6-6.8 18-12.6-1.4-5-2.9-9.7-4.3-13.7-3.3 1-6.3 1.8-8.9 2.4zm-44.1-22.2c3.9 4.7 7 10.4 9 15.1 1.4-.8 2.8-1.6 4-2.4-2.2-6.8-5.8-11.6-9.2-15-1.2.7-2.5 1.5-3.8 2.3zm112.8-12.1c-.3-4.1-.9-8.4-1.6-12.7-7 4.8-19.7 12.8-35.7 20.7-2 1-4 2-6.1 2.9-3.4 1.6-6.9 3.1-10.6 4.6l-2.1.9c.5 1.2 1.2 2.7 1.9 4.4.5 1.3 1.1 2.7 1.7 4.3.5 1.3 1 2.7 1.6 4.2.9 2.6 1.9 5.5 2.9 8.6.5 1.7 1 3.5 1.5 5.3.5 1.7.9 3.5 1.3 5.3 2.3 9.7 4 20.5 4 31.6 0 2.5-.4 4.9-.6 7.4 13.6-9.1 41.4-33.1 42.3-77.5 0-.7.1-1.3.1-2 0-1-.1-2-.1-2.9-.3-1.8-.4-3.5-.5-5.1z"/>
</svg>